<?xml version="1.0" standalone="no"?>
<!DOCTYPE svg PUBLIC "-//W3C//DTD SVG 1.1//EN" "http://www.w3.org/Graphics/SVG/1.1/DTD/svg11.dtd" >
<svg xmlns="http://www.w3.org/2000/svg">
<metadata>Generated by IcoMoon</metadata>
<defs>
<font id="icomoon" horiz-adv-x="1024">
<font-face units-per-em="1024" ascent="960" descent="-64" />
<missing-glyph horiz-adv-x="1024" />
<glyph unicode="&#x20;" horiz-adv-x="512" d="" />
<glyph unicode="&#xe900;" glyph-name="setting" d="M673.295 489.6c21.269 14.192 46.363 20.236 70.921 17.482l279.784 279.86-156.685 156.685-279.822-279.86c2.831-24.865-3.443-50.265-18.209-71.801l104.010-102.366zM185.222 148.764l-10.137 10.137-53.057-42.882-89.359-140.81 22.875-22.875 140.925 89.359 42.844 52.904-10.175 10.29 177.954 177.992-44.221 43.609zM428.589 642.231c20.542 73.446 1.913 155.538-55.735 213.3-57.456 57.227-138.591 76.009-211.617 56.194l123.673-123.634-32.439-121.11-121.263-32.439-123.634 123.558c-19.739-72.987-0.995-154.122 56.347-211.502 60.096-60.134 146.701-77.769 222.442-53.134l509.418-509.418c20.121-20.083 46.516-30.258 72.872-30.258 26.395 0 52.713 10.175 72.911 30.258 40.204 40.128 40.204 105.349 0 145.783l-512.975 512.402zM877.528 1.336c-21.651 0-39.21 17.635-39.21 39.363 0 21.804 17.558 39.363 39.21 39.363 21.804 0 39.439-17.558 39.439-39.363 0.038-21.728-17.596-39.363-39.439-39.363z" />
</font></defs></svg>